^C:\USERS\SOYEON\DESKTOP\겜소공\01_2016180049\SIMPLEGAME\X64\DEBUG\LOADPNG.OBJ|C:\USERS\SOYEON\DESKTOP\겜소공\01_2016180049\SIMPLEGAME\X64\DEBUG\OBJECT.OBJ|C:\USERS\SOYEON\DESKTOP\겜소공\01_2016180049\SIMPLEGAME\X64\DEBUG\PHYSICS.OBJ|C:\USERS\SOYEON\DESKTOP\겜소공\01_2016180049\SIMPLEGAME\X64\DEBUG\RENDERER.OBJ|C:\USERS\SOYEON\DESKTOP\겜소공\01_2016180049\SIMPLEGAME\X64\DEBUG\SCNMGR.OBJ|C:\USERS\SOYEON\DESKTOP\겜소공\01_2016180049\SIMPLEGAME\X64\DEBUG\SIMPLEGAME.OBJ|C:\USERS\SOYEON\DESKTOP\겜소공\01_2016180049\SIMPLEGAME\X64\DEBUG\SIMPLEGAME.RES|C:\USERS\SOYEON\DESKTOP\겜소공\01_2016180049\SIMPLEGAME\X64\DEBUG\SOUND.OBJ|C:\USERS\SOYEON\DESKTOP\겜소공\01_2016180049\SIMPLEGAME\X64\DEBUG\STDAFX.OBJ
/OUT:"C:\USERS\SOYEON\DESKTOP\겜소공\01_2016180049\X64\DEBUG\SIMPLEGAME.EXE" /INCREMENTAL /NOLOGO /LIBPATH:.\DEPENDENCIES\X64 KERNEL32.LIB USER32.LIB GDI32.LIB WINSPOOL.LIB COMDLG32.LIB ADVAPI32.LIB SHELL32.LIB OLE32.LIB OLEAUT32.LIB UUID.LIB ODBC32.LIB ODBCCP32.LIB KERNEL32.LIB USER32.LIB GDI32.LIB WINSPOOL.LIB COMDLG32.LIB ADVAPI32.LIB SHELL32.LIB OLE32.LIB OLEAUT32.LIB UUID.LIB ODBC32.LIB ODBCCP32.LIB FREEGLUT.LIB GLEW32.LIB /MANIFEST /MANIFESTUAC:"level='asInvoker' uiAccess='false'" /manifest:embed /DEBUG:FASTLINK /PDB:"C:\USERS\SOYEON\DESKTOP\겜소공\01_2016180049\X64\DEBUG\SIMPLEGAME.PDB" /SUBSYSTEM:CONSOLE /TLBID:1 /DYNAMICBASE /NXCOMPAT /IMPLIB:"C:\USERS\SOYEON\DESKTOP\겜소공\01_2016180049\X64\DEBUG\SIMPLEGAME.LIB" /MACHINE:X64 X64\DEBUG\SIMPLEGAME.RESX64\DEBUG\LOADPNG.OBJX64\DEBUG\OBJECT.OBJX64\DEBUG\PHYSICS.OBJX64\DEBUG\RENDERER.OBJX64\DEBUG\SCNMGR.OBJX64\DEBUG\SIMPLEGAME.OBJX64\DEBUG\SOUND.OBJX64\DEBUG\STDAFX.OBJ
^C:\USERS\BAOHAO\ONEDRIVE\바탕 화면\3학년2학기\게임소프트웨어공학\01_2016180049\SIMPLEGAME\X64\DEBUG\LOADPNG.OBJ|C:\USERS\BAOHAO\ONEDRIVE\바탕 화면\3학년2학기\게임소프트웨어공학\01_2016180049\SIMPLEGAME\X64\DEBUG\OBJECT.OBJ|C:\USERS\BAOHAO\ONEDRIVE\바탕 화면\3학년2학기\게임소프트웨어공학\01_2016180049\SIMPLEGAME\X64\DEBUG\PHYSICS.OBJ|C:\USERS\BAOHAO\ONEDRIVE\바탕 화면\3학년2학기\게임소프트웨어공학\01_2016180049\SIMPLEGAME\X64\DEBUG\RENDERER.OBJ|C:\USERS\BAOHAO\ONEDRIVE\바탕 화면\3학년2학기\게임소프트웨어공학\01_2016180049\SIMPLEGAME\X64\DEBUG\SCNMGR.OBJ|C:\USERS\BAOHAO\ONEDRIVE\바탕 화면\3학년2학기\게임소프트웨어공학\01_2016180049\SIMPLEGAME\X64\DEBUG\SIMPLEGAME.OBJ|C:\USERS\BAOHAO\ONEDRIVE\바탕 화면\3학년2학기\게임소프트웨어공학\01_2016180049\SIMPLEGAME\X64\DEBUG\SIMPLEGAME.RES|C:\USERS\BAOHAO\ONEDRIVE\바탕 화면\3학년2학기\게임소프트웨어공학\01_2016180049\SIMPLEGAME\X64\DEBUG\SOUND.OBJ|C:\USERS\BAOHAO\ONEDRIVE\바탕 화면\3학년2학기\게임소프트웨어공학\01_2016180049\SIMPLEGAME\X64\DEBUG\STDAFX.OBJ
/OUT:"C:\USERS\BAOHAO\ONEDRIVE\바탕 화면\3학년2학기\게임소프트웨어공학\01_2016180049\X64\DEBUG\SIMPLEGAME.EXE" /INCREMENTAL /NOLOGO /LIBPATH:.\DEPENDENCIES\X64 KERNEL32.LIB USER32.LIB GDI32.LIB WINSPOOL.LIB COMDLG32.LIB ADVAPI32.LIB SHELL32.LIB OLE32.LIB OLEAUT32.LIB UUID.LIB ODBC32.LIB ODBCCP32.LIB KERNEL32.LIB USER32.LIB GDI32.LIB WINSPOOL.LIB COMDLG32.LIB ADVAPI32.LIB SHELL32.LIB OLE32.LIB OLEAUT32.LIB UUID.LIB ODBC32.LIB ODBCCP32.LIB FREEGLUT.LIB GLEW32.LIB /MANIFEST /MANIFESTUAC:"level='asInvoker' uiAccess='false'" /manifest:embed /DEBUG:FASTLINK /PDB:"C:\USERS\BAOHAO\ONEDRIVE\바탕 화면\3학년2학기\게임소프트웨어공학\01_2016180049\X64\DEBUG\SIMPLEGAME.PDB" /SUBSYSTEM:CONSOLE /TLBID:1 /DYNAMICBASE /NXCOMPAT /IMPLIB:"C:\USERS\BAOHAO\ONEDRIVE\바탕 화면\3학년2학기\게임소프트웨어공학\01_2016180049\X64\DEBUG\SIMPLEGAME.LIB" /MACHINE:X64 X64\DEBUG\SIMPLEGAME.RES
X64\DEBUG\LOADPNG.OBJ
X64\DEBUG\OBJECT.OBJ
X64\DEBUG\PHYSICS.OBJ
X64\DEBUG\RENDERER.OBJ
X64\DEBUG\SCNMGR.OBJ
X64\DEBUG\SIMPLEGAME.OBJ
X64\DEBUG\SOUND.OBJ
X64\DEBUG\STDAFX.OBJ
^C:\USERS\BAOHAO\ONEDRIVE\바탕 화면\3학년2학기\게임소프트웨어공학\02_2016184030_MODIFY-MASTER\02_2016184030_MODIFY\SIMPLEGAME\X64\DEBUG\LOADPNG.OBJ|C:\USERS\BAOHAO\ONEDRIVE\바탕 화면\3학년2학기\게임소프트웨어공학\02_2016184030_MODIFY-MASTER\02_2016184030_MODIFY\SIMPLEGAME\X64\DEBUG\LOGO.OBJ|C:\USERS\BAOHAO\ONEDRIVE\바탕 화면\3학년2학기\게임소프트웨어공학\02_2016184030_MODIFY-MASTER\02_2016184030_MODIFY\SIMPLEGAME\X64\DEBUG\OBJECT.OBJ|C:\USERS\BAOHAO\ONEDRIVE\바탕 화면\3학년2학기\게임소프트웨어공학\02_2016184030_MODIFY-MASTER\02_2016184030_MODIFY\SIMPLEGAME\X64\DEBUG\PHYSICS.OBJ|C:\USERS\BAOHAO\ONEDRIVE\바탕 화면\3학년2학기\게임소프트웨어공학\02_2016184030_MODIFY-MASTER\02_2016184030_MODIFY\SIMPLEGAME\X64\DEBUG\RENDERER.OBJ|C:\USERS\BAOHAO\ONEDRIVE\바탕 화면\3학년2학기\게임소프트웨어공학\02_2016184030_MODIFY-MASTER\02_2016184030_MODIFY\SIMPLEGAME\X64\DEBUG\SCENE.OBJ|C:\USERS\BAOHAO\ONEDRIVE\바탕 화면\3학년2학기\게임소프트웨어공학\02_2016184030_MODIFY-MASTER\02_2016184030_MODIFY\SIMPLEGAME\X64\DEBUG\SCNMGR.OBJ|C:\USERS\BAOHAO\ONEDRIVE\바탕 화면\3학년2학기\게임소프트웨어공학\02_2016184030_MODIFY-MASTER\02_2016184030_MODIFY\SIMPLEGAME\X64\DEBUG\SIMPLEGAME.OBJ|C:\USERS\BAOHAO\ONEDRIVE\바탕 화면\3학년2학기\게임소프트웨어공학\02_2016184030_MODIFY-MASTER\02_2016184030_MODIFY\SIMPLEGAME\X64\DEBUG\SIMPLEGAME.RES|C:\USERS\BAOHAO\ONEDRIVE\바탕 화면\3학년2학기\게임소프트웨어공학\02_2016184030_MODIFY-MASTER\02_2016184030_MODIFY\SIMPLEGAME\X64\DEBUG\SOUND.OBJ|C:\USERS\BAOHAO\ONEDRIVE\바탕 화면\3학년2학기\게임소프트웨어공학\02_2016184030_MODIFY-MASTER\02_2016184030_MODIFY\SIMPLEGAME\X64\DEBUG\STDAFX.OBJ
/OUT:"C:\USERS\BAOHAO\ONEDRIVE\바탕 화면\3학년2학기\게임소프트웨어공학\02_2016184030_MODIFY-MASTER\02_2016184030_MODIFY\X64\DEBUG\SIMPLEGAME.EXE" /INCREMENTAL /NOLOGO /LIBPATH:.\DEPENDENCIES\X64 KERNEL32.LIB USER32.LIB GDI32.LIB WINSPOOL.LIB COMDLG32.LIB ADVAPI32.LIB SHELL32.LIB OLE32.LIB OLEAUT32.LIB UUID.LIB ODBC32.LIB ODBCCP32.LIB KERNEL32.LIB USER32.LIB GDI32.LIB WINSPOOL.LIB COMDLG32.LIB ADVAPI32.LIB SHELL32.LIB OLE32.LIB OLEAUT32.LIB UUID.LIB ODBC32.LIB ODBCCP32.LIB FREEGLUT.LIB GLEW32.LIB /MANIFEST /MANIFESTUAC:"level='asInvoker' uiAccess='false'" /manifest:embed /DEBUG:FASTLINK /PDB:"C:\USERS\BAOHAO\ONEDRIVE\바탕 화면\3학년2학기\게임소프트웨어공학\02_2016184030_MODIFY-MASTER\02_2016184030_MODIFY\X64\DEBUG\SIMPLEGAME.PDB" /SUBSYSTEM:CONSOLE /TLBID:1 /DYNAMICBASE /NXCOMPAT /IMPLIB:"C:\USERS\BAOHAO\ONEDRIVE\바탕 화면\3학년2학기\게임소프트웨어공학\02_2016184030_MODIFY-MASTER\02_2016184030_MODIFY\X64\DEBUG\SIMPLEGAME.LIB" /MACHINE:X64 X64\DEBUG\SIMPLEGAME.RES
X64\DEBUG\LOADPNG.OBJ
X64\DEBUG\LOGO.OBJ
X64\DEBUG\OBJECT.OBJ
X64\DEBUG\PHYSICS.OBJ
X64\DEBUG\RENDERER.OBJ
X64\DEBUG\SCENE.OBJ
X64\DEBUG\SCNMGR.OBJ
X64\DEBUG\SIMPLEGAME.OBJ
X64\DEBUG\SOUND.OBJ
X64\DEBUG\STDAFX.OBJ
