^D:\GSE_PROJECT\02_2016184030_MODIFY\SIMPLEGAME\SIMPLEGAME\X64\RELEASE\OBJECT.OBJ|D:\GSE_PROJECT\02_2016184030_MODIFY\SIMPLEGAME\SIMPLEGAME\X64\RELEASE\RENDERER.OBJ|D:\GSE_PROJECT\02_2016184030_MODIFY\SIMPLEGAME\SIMPLEGAME\X64\RELEASE\SCNMGR.OBJ|D:\GSE_PROJECT\02_2016184030_MODIFY\SIMPLEGAME\SIMPLEGAME\X64\RELEASE\SIMPLEGAME.OBJ|D:\GSE_PROJECT\02_2016184030_MODIFY\SIMPLEGAME\SIMPLEGAME\X64\RELEASE\STDAFX.OBJ
/OUT:"D:\GSE_PROJECT\02_2016184030_MODIFY\SIMPLEGAME\X64\RELEASE\SIMPLEGAME.EXE" /INCREMENTAL:NO /NOLOGO /LIBPATH:.\DEPENDENCIES\X64 KERNEL32.LIB USER32.LIB GDI32.LIB WINSPOOL.LIB COMDLG32.LIB ADVAPI32.LIB SHELL32.LIB OLE32.LIB OLEAUT32.LIB UUID.LIB ODBC32.LIB ODBCCP32.LIB KERNEL32.LIB USER32.LIB GDI32.LIB WINSPOOL.LIB COMDLG32.LIB ADVAPI32.LIB SHELL32.LIB OLE32.LIB OLEAUT32.LIB UUID.LIB ODBC32.LIB ODBCCP32.LIB FREEGLUT.LIB GLEW32.LIB /MANIFEST /MANIFESTUAC:"level='asInvoker' uiAccess='false'" /manifest:embed /DEBUG /PDB:"D:\GSE_PROJECT\02_2016184030_MODIFY\SIMPLEGAME\X64\RELEASE\SIMPLEGAME.PDB" /SUBSYSTEM:CONSOLE /OPT:REF /OPT:ICF /LTCG:incremental /TLBID:1 /DYNAMICBASE /NXCOMPAT /IMPLIB:"D:\GSE_PROJECT\02_2016184030_MODIFY\SIMPLEGAME\X64\RELEASE\SIMPLEGAME.LIB" /MACHINE:X64 X64\RELEASE\OBJECT.OBJ
X64\RELEASE\RENDERER.OBJ
X64\RELEASE\SCNMGR.OBJ
X64\RELEASE\SIMPLEGAME.OBJ
X64\RELEASE\STDAFX.OBJ
