#Command: "C:\Program Files (x86)\Microsoft Visual Studio\2019\Community\VC\Tools\MSVC\14.23.28105\bin\HostX86\x64\link.exe" /ERRORREPORT:PROMPT @C:\Users\baohao\AppData\Local\Temp\tmp2ba374553d8d4e848f493378e7817acd.rsp
^D:\GSE_PROJECT\02_2016184030_MODIFY\SIMPLEGAME\SIMPLEGAME\X64\RELEASE\OBJECT.OBJ|D:\GSE_PROJECT\02_2016184030_MODIFY\SIMPLEGAME\SIMPLEGAME\X64\RELEASE\RENDERER.OBJ|D:\GSE_PROJECT\02_2016184030_MODIFY\SIMPLEGAME\SIMPLEGAME\X64\RELEASE\SCNMGR.OBJ|D:\GSE_PROJECT\02_2016184030_MODIFY\SIMPLEGAME\SIMPLEGAME\X64\RELEASE\SIMPLEGAME.OBJ|D:\GSE_PROJECT\02_2016184030_MODIFY\SIMPLEGAME\SIMPLEGAME\X64\RELEASE\STDAFX.OBJ
D:\GSE_PROJECT\02_2016184030_MODIFY\SIMPLEGAME\X64\RELEASE\SIMPLEGAME.PDB
#Command: "C:\Program Files (x86)\Microsoft Visual Studio\2019\Community\VC\Tools\MSVC\14.23.28105\bin\HostX86\x64\link.exe" /ERRORREPORT:PROMPT @C:\Users\baohao\AppData\Local\Temp\tmp34b36b218845482e8af5f787483272d5.rsp
^D:\GSE_PROJECT\02_2016184030_MODIFY\SIMPLEGAME\SIMPLEGAME\X64\RELEASE\OBJECT.OBJ|D:\GSE_PROJECT\02_2016184030_MODIFY\SIMPLEGAME\SIMPLEGAME\X64\RELEASE\RENDERER.OBJ|D:\GSE_PROJECT\02_2016184030_MODIFY\SIMPLEGAME\SIMPLEGAME\X64\RELEASE\SCNMGR.OBJ|D:\GSE_PROJECT\02_2016184030_MODIFY\SIMPLEGAME\SIMPLEGAME\X64\RELEASE\SIMPLEGAME.OBJ|D:\GSE_PROJECT\02_2016184030_MODIFY\SIMPLEGAME\SIMPLEGAME\X64\RELEASE\STDAFX.OBJ
D:\GSE_PROJECT\02_2016184030_MODIFY\SIMPLEGAME\X64\RELEASE\SIMPLEGAME.PDB
#Command: "C:\Program Files (x86)\Microsoft Visual Studio\2019\Community\VC\Tools\MSVC\14.23.28105\bin\HostX86\x64\link.exe" /ERRORREPORT:PROMPT @C:\Users\baohao\AppData\Local\Temp\tmp7e964781eece4f4cbf00832ebd1ecdbe.rsp
^D:\GSE_PROJECT\02_2016184030_MODIFY\SIMPLEGAME\SIMPLEGAME\X64\RELEASE\OBJECT.OBJ|D:\GSE_PROJECT\02_2016184030_MODIFY\SIMPLEGAME\SIMPLEGAME\X64\RELEASE\RENDERER.OBJ|D:\GSE_PROJECT\02_2016184030_MODIFY\SIMPLEGAME\SIMPLEGAME\X64\RELEASE\SCNMGR.OBJ|D:\GSE_PROJECT\02_2016184030_MODIFY\SIMPLEGAME\SIMPLEGAME\X64\RELEASE\SIMPLEGAME.OBJ|D:\GSE_PROJECT\02_2016184030_MODIFY\SIMPLEGAME\SIMPLEGAME\X64\RELEASE\STDAFX.OBJ
D:\GSE_PROJECT\02_2016184030_MODIFY\SIMPLEGAME\X64\RELEASE\SIMPLEGAME.PDB
